{
    "AppConfig": {
        "LogPath":"./logs/",
        "Value":"app_consolefull"
    },
    // Learn More about Serilog Configuration at:
    // https://github.com/serilog/serilog-settings-configuration
    "Serilog": {
        // Verbose, Debug, Information, Warning, Error, Fatal
        "MinimumLevel":"Debug"
    }
}