{
    "$schema": "http://json.schemastore.org/template",
    "author": "Henry Nitz",
    "classifications": [ "Common", "Console", "Logging", "Config" ],
    "identity": "Nitz.Template.Console",
    "name": "Example templates: async project",
    "shortName": "consolefull",
    "tags": {
      "language": "C#",
      "type": "project"
    }
  }